%YAML 1.1
%TAG !u! tag:unity3d.com,2011:
--- !u!1045 &1
EditorBuildSettings:
  m_ObjectHideFlags: 0
  serializedVersion: 2
  m_Scenes:
  - enabled: 0
    path: Assets/Scenes/Launcher.unity
    guid: 9fc0d4010bbf28b4594072e72b8655ab
  - enabled: 1
    path: Assets/Scenes/ExpoProject/UIServerControll.unity
    guid: 949a2ac1786df7f47b290f7a91219b67
  - enabled: 1
    path: Assets/Scenes/Room for 1.unity
    guid: 3c27dd62bf1effe4c87ed81ec2e5e1d6
  - enabled: 1
    path: Assets/Scenes/Room for 2.unity
    guid: 5f45a6c8ca0c8f64596cef4667b6a6c6
  - enabled: 1
    path: Assets/Scenes/Room for 3.unity
    guid: 83b76c00970f33040bc6b66703f8cc10
  - enabled: 1
    path: Assets/Scenes/Room for 4.unity
    guid: 4e08d4a6286ea184ba6bd6be3a3632a4
  m_configObjects: {}
